{
  "MA1": {
    "Fixed": false,
    "Options": [
      "MA_00",
      "MA_01"
    ],
    "Price": {
      "MA_00": 0,
      "MA_01": 0.92
    }
  },
  "MA2": {
    "Fixed": true,
    "Options": [
      "MA_00"
    ],
    "Price": {
      "MA_00": 0
    }
  },
  "MA3": {
    "Fixed": true,
    "Options": [
      "MA_01"
    ],
    "Price": {
      "MA_01": 0.92
    }
  },
  "MA4": {
    "Fixed": true,
    "Options": [
      "MA_02"
    ],
    "Price": {
      "MA_02": 0
    }
  },
  "MB1": {
    "Fixed": false,
    "Options": [
      "MB_00",
      "MB_01",
      "MB_02",
      "MB_03",
      "MB_04",
      "MB_06"
    ],
    "Price": {
      "MB_00": 0,
      "MB_01": 0,
      "MB_02": 0,
      "MB_03": 0,
      "MB_04": 0,
      "MB_06": 0
    }
  },
  "MB2": {
    "Fixed": false,
    "Options": [
      "MB_00",
      "MB_01",
      "MB_03",
      "MB_04",
      "MB_06"
    ],
    "Price": {
      "MB_00": 0,
      "MB_01": 0,
      "MB_03": 0,
      "MB_04": 0,
      "MB_06": 0
    }
  },
  "MB3": {
    "Fixed": false,
    "Options": [
      "MB_00",
      "MB_01",
      "MB_05"
    ],
    "Price": {
      "MB_00": 0,
      "MB_01": 0,
      "MB_05": 0
    }
  },
  "MB4": {
    "Fixed": false,
    "Options": [
      "MB_02",
      "MB_03",
      "MB_04",
      "MB_06"
    ],
    "Price": {
      "MB_02": 0,
      "MB_03": 0,
      "MB_04": 0,
      "MB_06": 0
    }
  },
  "MB5": {
    "Fixed": false,
    "Options": [
      "MB_03",
      "MB_04",
      "MB_06"
    ],
    "Price": {
      "MB_03": 0,
      "MB_04": 0,
      "MB_06": 0
    }
  },
  "MB6": {
    "Fixed": true,
    "Options": [
      "MB_05"
    ],
    "Price": {
      "MB_05": 0
    }
  },
  "MB7": {
    "Fixed": false,
    "Options": [
      "MB_00",
      "MB_01"
    ],
    "Price": {
      "MB_00": 0,
      "MB_01": 0
    }
  },
  "MC1": {
    "Fixed": false,
    "Options": [
      "MC_00",
      "MC_01",
      "MC_02",
      "MC_03",
      "MC_04",
      "MC_06"
    ],
    "Price": {
      "MC_00": 0,
      "MC_01": 0,
      "MC_02": 0,
      "MC_03": 0,
      "MC_04": 0,
      "MC_06": 0
    }
  },
  "MC2": {
    "Fixed": false,
    "Options": [
      "MC_01",
      "MC_02",
      "MC_03",
      "MC_04",
      "MC_06"
    ],
    "Price": {
      "MC_01": 0,
      "MC_02": 0,
      "MC_03": 0,
      "MC_04": 0,
      "MC_06": 0
    }
  },
  "MC3": {
    "Fixed": false,
    "Options": [
      "MC_02",
      "MC_03",
      "MC_04",
      "MC_06"
    ],
    "Price": {
      "MC_02": 0,
      "MC_03": 0,
      "MC_04": 0,
      "MC_06": 0
    }
  },
  "MC4": {
    "Fixed": false,
    "Options": [
      "MC_03",
      "MC_04",
      "MC_06"
    ],
    "Price": {
      "MC_03": 0,
      "MC_04": 0,
      "MC_06": 0
    }
  },
  "MC5": {
    "Fixed": false,
    "Options": [
      "MC_05",
      "MC_06"
    ],
    "Price": {
      "MC_05": 0,
      "MC_06": 0
    }
  },
  "MC6": {
    "Fixed": false,
    "Options": [
      "MC_00",
      "MC_06"
    ],
    "Price": {
      "MC_00": 0,
      "MC_06": 0
    }
  },
  "MC7": {
    "Fixed": false,
    "Options": [
      "MC_00",
      "MC_02",
      "MC_06"
    ],
    "Price": {
      "MC_00": 0,
      "MC_02": 0,
      "MC_06": 0
    }
  },
  "MF1": {
    "Fixed": false,
    "Options": [
      "MF_00",
      "MF_01",
      "MF_02",
      "MF_03",
      "MF_04"
    ],
    "Price": {
      "MF_00": 0,
      "MF_01": 0.69,
      "MF_02": 0.69,
      "MF_03": 0.69,
      "MF_04": 0.69
    }
  },
  "MF2": {
    "Fixed": false,
    "Options": [
      "MF_01",
      "MF_02",
      "MF_03",
      "MF_04"
    ],
    "Price": {
      "MF_01": 0.0,
      "MF_02": 0.0,
      "MF_03": 0.0,
      "MF_04": 0.0
    }
  },
  "MF3": {
    "Fixed": true,
    "Options": [
      "MF_00"
    ],
    "Price": {
      "MF_00": 0
    }
  },
  "MF4": {
    "Fixed": true,
    "Options": [
      "MF_05"
    ],
    "Price": {
      "MF_05": 0
    }
  },
  "MD1": {
    "Fixed": false,
    "Options": [
      "MT_00",
      "MT_01",
      "MT_02",
      "MT_03",
      "MT_04",
      "MT_05",
      "MT_06",
      "MT_07",
      "MT_08",
      "MT_09"
    ],
    "Price": {
      "MT_00": 0.69,
      "MT_01": 0.69,
      "MT_02": 0.69,
      "MT_03": 0.69,
      "MT_04": 0.69,
      "MT_05": 0.69,
      "MT_06": 0.69,
      "MT_07": 0.69,
      "MT_08": 0.92,
      "MT_09": 0.92
    }
  },
  "MD2": {
    "Fixed": false,
    "Options": [
      "MT_00",
      "MT_01",
      "MT_02",
      "MT_03",
      "MT_04",
      "MT_05",
      "MT_06",
      "MT_07",
      "MT_08"
    ],
    "Price": {
      "MT_00": 0.69,
      "MT_01": 0.69,
      "MT_02": 0.69,
      "MT_03": 0.69,
      "MT_04": 0.69,
      "MT_05": 0.69,
      "MT_06": 0.69,
      "MT_07": 0.69,
      "MT_08": 0.92
    }
  },
  "MD3": {
    "Fixed": false,
    "Options": [
      "MT_00",
      "MT_01"
    ],
    "Price": {
      "MT_00": 0.69,
      "MT_01": 0.69
    }
  }
}